{
	"info": {
		"_postman_id": "2c45edfd-6282-4548-8ee3-87bc030a3d19",
		"name": "Java - Task 5 - youTrack",
		"schema": "https://schema.getpostman.com/json/collection/v2.1.0/collection.json"
	},
	"item": [
		{
			"name": "Post customer",
			"request": {
				"method": "POST",
				"header": [],
				"body": {
					"mode": "raw",
					"raw": "{\r\n    \"customerId\": 997,\r\n    \"firstName\": \"Astri\",\r\n    \"lastName\": \"Agur\",\r\n    \"company\": \"UNN\",\r\n    \"address\": \"Varden\",\r\n    \"city\": \"Tromsø\",\r\n    \"state\": \"Troms\",\r\n    \"country\": \"Norway\",\r\n    \"postalCode\": \"0921\",\r\n    \"phone\": \"+55 (12) 3423-1111\",\r\n    \"fax\": \"what the fax say\",\r\n    \"email\": \"a@unn.com\",\r\n    \"supportRepId\": \"\"\r\n}",
					"options": {
						"raw": {
							"language": "json"
						}
					}
				},
				"url": {
					"raw": "https://experis-piawn-youtrack-docker.herokuapp.com/api/customers",
					"protocol": "https",
					"host": [
						"experis-piawn-youtrack-docker",
						"herokuapp",
						"com"
					],
					"path": [
						"api",
						"customers"
					]
				},
				"description": "Posts a Customer to the database. supportRepId is set in the repository, so you can leave it blank."
			},
			"response": []
		},
		{
			"name": "Update customer",
			"request": {
				"method": "PUT",
				"header": [],
				"body": {
					"mode": "raw",
					"raw": "{\r\n    \"customerId\": 997,\r\n    \"firstName\": \"Astri\",\r\n    \"lastName\": \"Agurk\",\r\n    \"company\": \"UNN\",\r\n    \"address\": \"Varden\",\r\n    \"city\": \"Tromsø\",\r\n    \"state\": \"Troms\",\r\n    \"country\": \"Norway\",\r\n    \"postalCode\": \"0921\",\r\n    \"phone\": \"+55 (12) 3423-1111\",\r\n    \"fax\": \"what the fax say\",\r\n    \"email\": \"a@unn.com\",\r\n    \"supportRepId\": \"\"\r\n}",
					"options": {
						"raw": {
							"language": "json"
						}
					}
				},
				"url": {
					"raw": "https://experis-piawn-youtrack-docker.herokuapp.com/api/customers",
					"protocol": "https",
					"host": [
						"experis-piawn-youtrack-docker",
						"herokuapp",
						"com"
					],
					"path": [
						"api",
						"customers"
					]
				},
				"description": "Takes in a whole Customer and updates all variables. Must be a matching id in the database."
			},
			"response": []
		},
		{
			"name": "Get all customers",
			"request": {
				"method": "GET",
				"header": [],
				"url": {
					"raw": "https://experis-piawn-youtrack-docker.herokuapp.com/api/customers",
					"protocol": "https",
					"host": [
						"experis-piawn-youtrack-docker",
						"herokuapp",
						"com"
					],
					"path": [
						"api",
						"customers"
					]
				},
				"description": "Gets a minimal version of all customers. Will change endpoint later to get full version of customer at api/customers and add minimal version to api/customers/min."
			},
			"response": []
		},
		{
			"name": "Get highest spending customers",
			"request": {
				"method": "GET",
				"header": [],
				"url": {
					"raw": "https://experis-piawn-youtrack-docker.herokuapp.com/api/customers/spending/highest",
					"protocol": "https",
					"host": [
						"experis-piawn-youtrack-docker",
						"herokuapp",
						"com"
					],
					"path": [
						"api",
						"customers",
						"spending",
						"highest"
					]
				},
				"description": "Returns all the customers and their total spending."
			},
			"response": []
		},
		{
			"name": "Get customers by country",
			"request": {
				"method": "GET",
				"header": [],
				"url": {
					"raw": "https://experis-piawn-youtrack-docker.herokuapp.com/api/customers/country",
					"protocol": "https",
					"host": [
						"experis-piawn-youtrack-docker",
						"herokuapp",
						"com"
					],
					"path": [
						"api",
						"customers",
						"country"
					]
				},
				"description": "Returns each country and the number of customers from that country."
			},
			"response": []
		},
		{
			"name": "Get customers most popular genre",
			"request": {
				"method": "GET",
				"header": [],
				"url": {
					"raw": "https://experis-piawn-youtrack-docker.herokuapp.com/api/customers/:id/popular/genre",
					"protocol": "https",
					"host": [
						"experis-piawn-youtrack-docker",
						"herokuapp",
						"com"
					],
					"path": [
						"api",
						"customers",
						":id",
						"popular",
						"genre"
					],
					"variable": [
						{
							"key": "id",
							"value": "",
							"type": "string"
						}
					]
				},
				"description": "Return customers most popular genre(s). Must add customerId in path."
			},
			"response": []
		}
	],
	"protocolProfileBehavior": {}
}